<?xml version="1.0" encoding="UTF-8" standalone="no"?>
<svg
   xmlns:dc="http://purl.org/dc/elements/1.1/"
   xmlns:cc="http://creativecommons.org/ns#"
   xmlns:rdf="http://www.w3.org/1999/02/22-rdf-syntax-ns#"
   xmlns:svg="http://www.w3.org/2000/svg"
   xmlns="http://www.w3.org/2000/svg"
   xmlns:sodipodi="http://sodipodi.sourceforge.net/DTD/sodipodi-0.dtd"
   xmlns:inkscape="http://www.inkscape.org/namespaces/inkscape"
   sodipodi:docname="rysunek5.svg"
   inkscape:version="1.0 (4035a4fb49, 2020-05-01)"
   id="svg8"
   version="1.1"
   viewBox="0 0 210 297"
   height="297mm"
   width="210mm">
  <defs
     id="defs2">
    <rect
       id="rect1421"
       height="125.4881"
       width="234.34524"
       y="40.821429"
       x="22.678571" />
    <rect
       id="rect12"
       height="219.22619"
       width="210.15476"
       y="-15.119048"
       x="-162.52976" />
  </defs>
  <sodipodi:namedview
     inkscape:window-maximized="1"
     inkscape:window-y="-8"
     inkscape:window-x="-8"
     inkscape:window-height="705"
     inkscape:window-width="1366"
     inkscape:object-paths="true"
     showgrid="false"
     inkscape:document-rotation="0"
     inkscape:current-layer="layer1"
     inkscape:document-units="mm"
     inkscape:cy="560"
     inkscape:cx="400"
     inkscape:zoom="0.35"
     inkscape:pageshadow="2"
     inkscape:pageopacity="0.0"
     borderopacity="1.0"
     bordercolor="#666666"
     pagecolor="#ffffff"
     id="base" />
  <metadata
     id="metadata5">
    <rdf:RDF>
      <cc:Work
         rdf:about="">
        <dc:format>image/svg+xml</dc:format>
        <dc:type
           rdf:resource="http://purl.org/dc/dcmitype/StillImage" />
        <dc:title></dc:title>
      </cc:Work>
    </rdf:RDF>
  </metadata>
  <g
     id="layer1"
     inkscape:groupmode="layer"
     inkscape:label="Warstwa 1">
    <path
       d="m -70.780469,53.797823 a 65.075641,53.415302 0 0 0 -7.917347,0.404108 h 0.0041 l 15.96595,-0.001 a 65.075641,53.415302 0 0 0 -7.979357,-0.403076 65.075641,53.415302 0 0 0 -0.07338,0 z m 8.052736,0.403076 a 65.075641,53.415302 0 0 1 0.02532,0.0026 65.075641,53.415302 0 0 0 -5.18e-4,-5.16e-4 65.075641,53.415302 0 0 0 -0.0041,-5.16e-4 65.075641,53.415302 0 0 0 -0.0155,-0.0016 z m 0.06718,0.0067 a 65.075641,53.415302 0 0 1 0.764294,0.08217 65.075641,53.415302 0 0 1 0.27957,0.03204 65.075641,53.415302 0 0 1 0.275436,0.03256 65.075641,53.415302 0 0 0 -0.275436,-0.03307 65.075641,53.415302 0 0 0 -10e-4,0 65.075641,53.415302 0 0 0 -0.05374,-0.0062 65.075641,53.415302 0 0 0 -0.224793,-0.02584 65.075641,53.415302 0 0 0 -0.08268,-0.0093 65.075641,53.415302 0 0 0 -0.361736,-0.03927 65.075641,53.415302 0 0 0 -0.319876,-0.03307 z m -16.486848,0.04134 a 65.075641,53.415302 0 0 0 -1.084173,0.124024 65.075641,53.415302 0 0 1 0.36122,-0.04289 65.075641,53.415302 0 0 1 0.361217,-0.04134 65.075641,53.415302 0 0 1 0.361736,-0.03979 z m 17.806148,0.104902 a 65.075641,53.415302 0 0 1 0.3576,0.04341 65.075641,53.415302 0 0 0 -0.272851,-0.03359 65.075641,53.415302 0 0 0 -0.08475,-0.0098 z m 0.901753,0.113173 a 65.075641,53.415302 0 0 1 1.238168,0.172082 65.075641,53.415302 0 0 0 -0.254765,-0.03721 65.075641,53.415302 0 0 0 -0.35915,-0.05116 65.075641,53.415302 0 0 0 -0.360186,-0.04909 65.075641,53.415302 0 0 0 -0.264067,-0.03462 z m -21.232812,0.09457 a 65.075641,53.415302 0 0 0 -0.359667,0.05116 65.075641,53.415302 0 0 1 0.359667,-0.05116 z m -0.359667,0.05116 a 65.075641,53.415302 0 0 0 -0.717785,0.107487 65.075641,53.415302 0 0 1 0.358635,-0.05426 65.075641,53.415302 0 0 1 0.35915,-0.05323 z m 22.935033,0.04186 a 65.075641,53.415302 0 0 1 0.359151,0.05426 65.075641,53.415302 0 0 0 -0.359151,-0.05426 z m 0.425815,0.0646 a 65.075641,53.415302 0 0 1 0.889349,0.142626 65.075641,53.415302 0 0 0 -0.239778,-0.03979 65.075641,53.415302 0 0 0 -0.358116,-0.05736 65.075641,53.415302 0 0 0 -0.291455,-0.04548 z m -25.152471,0.174667 a 65.075641,53.415302 0 0 0 -0.71365,0.124024 65.075641,53.415302 0 0 1 0.356566,-0.06253 65.075641,53.415302 0 0 1 0.357084,-0.06149 z m 26.641784,0.0708 a 65.075641,53.415302 0 0 1 0.233061,0.04082 65.075641,53.415302 0 0 1 0.226859,0.04083 65.075641,53.415302 0 0 0 -0.190169,-0.03462 65.075641,53.415302 0 0 0 -0.03772,-0.0067 65.075641,53.415302 0 0 0 -0.232027,-0.04031 z m -28.067536,0.183452 a 65.075641,53.415302 0 0 0 -0.355018,0.06821 65.075641,53.415302 0 0 1 0.355018,-0.0677 65.075641,53.415302 0 0 0 0,-5.16e-4 z m 29.147057,0.0124 a 65.075641,53.415302 0 0 1 0.576192,0.111104 65.075641,53.415302 0 0 0 -10e-4,-5.16e-4 65.075641,53.415302 0 0 0 -0.355018,-0.06925 65.075641,53.415302 0 0 0 -0.220142,-0.04134 z m -29.832286,0.120406 a 65.075641,53.415302 0 0 0 -49.848117,51.932231 65.075641,53.415302 0 0 0 65.07561,53.41482 65.075641,53.415302 0 0 0 65.0756139,-53.41482 H -69.726788 v 38.57232 h 42.633574 a 65.075641,53.415302 0 0 1 -0.20774,0.15348 65.075641,53.415302 0 0 1 -0.272851,0.19895 65.075641,53.415302 0 0 1 -0.273886,0.19792 65.075641,53.415302 0 0 1 -0.274918,0.19637 65.075641,53.415302 0 0 1 -0.276469,0.19534 65.075641,53.415302 0 0 1 -0.278019,0.19379 65.075641,53.415302 0 0 1 -0.279569,0.19275 65.075641,53.415302 0 0 1 -0.280604,0.19172 65.075641,53.415302 0 0 1 -0.281636,0.19017 65.075641,53.415302 0 0 1 -0.283188,0.18862 65.075641,53.415302 0 0 1 -0.284218,0.18758 65.075641,53.415302 0 0 1 -0.285772,0.18604 65.075641,53.415302 0 0 1 -0.287321,0.185 65.075641,53.415302 0 0 1 -0.287838,0.18345 65.075641,53.415302 0 0 1 -0.289388,0.18242 65.075641,53.415302 0 0 1 -0.290938,0.18087 65.075641,53.415302 0 0 1 -0.291973,0.17931 65.075641,53.415302 0 0 1 -0.293005,0.17829 65.075641,53.415302 0 0 1 -0.294555,0.17673 65.075641,53.415302 0 0 1 -0.29559,0.1757 65.075641,53.415302 0 0 1 -0.296622,0.17415 65.075641,53.415302 0 0 1 -0.298172,0.1726 65.075641,53.415302 0 0 1 -0.299207,0.17157 65.075641,53.415302 0 0 1 -0.300241,0.17001 65.075641,53.415302 0 0 1 -0.301273,0.16847 65.075641,53.415302 0 0 1 -0.302824,0.16743 65.075641,53.415302 0 0 1 -0.303858,0.16588 65.075641,53.415302 0 0 1 -0.30489,0.16433 65.075641,53.415302 0 0 1 -0.305924,0.16278 65.075641,53.415302 0 0 1 -0.306959,0.16175 65.075641,53.415302 0 0 1 -0.30851,0.1602 65.075641,53.415302 0 0 1 -0.309023,0.15864 65.075641,53.415302 0 0 1 -0.310575,0.15761 65.075641,53.415302 0 0 1 -0.311092,0.15607 65.075641,53.415302 0 0 1 -0.312642,0.15451 65.075641,53.415302 0 0 1 -0.313677,0.15296 65.075641,53.415302 0 0 1 -0.314709,0.15141 65.075641,53.415302 0 0 1 -0.315227,0.15038 65.075641,53.415302 0 0 1 -0.316778,0.14831 65.075641,53.415302 0 0 1 -0.317809,0.14728 65.075641,53.415302 0 0 1 -0.318844,0.14625 65.075641,53.415302 0 0 1 -0.31936,0.14417 65.075641,53.415302 0 0 1 -0.320911,0.14263 65.075641,53.415302 0 0 1 -0.321426,0.14159 65.075641,53.415302 0 0 1 -0.322461,0.13953 65.075641,53.415302 0 0 1 -0.323496,0.13849 65.075641,53.415302 0 0 1 -0.324527,0.13695 65.075641,53.415302 0 0 1 -0.325562,0.13539 65.075641,53.415302 0 0 1 -0.326078,0.13384 65.075641,53.415302 0 0 1 -0.327112,0.13281 65.075641,53.415302 0 0 1 -0.328144,0.13074 65.075641,53.415302 0 0 1 -0.329179,0.12919 65.075641,53.415302 0 0 1 -0.329697,0.12816 65.075641,53.415302 0 0 1 -0.330729,0.12609 65.075641,53.415302 0 0 1 -0.331761,0.12506 65.075641,53.415302 0 0 1 -0.33228,0.12299 65.075641,53.415302 0 0 1 -0.333314,0.12195 65.075641,53.415302 0 0 1 -0.334346,0.12041 65.075641,53.415302 0 0 1 -0.334865,0.11834 65.075641,53.415302 0 0 1 -0.335896,0.1173 65.075641,53.415302 0 0 1 -0.336413,0.11576 65.075641,53.415302 0 0 1 -0.337447,0.11369 65.075641,53.415302 0 0 1 -0.337965,0.11265 65.075641,53.415302 0 0 1 -0.338997,0.1111 65.075641,53.415302 0 0 1 -0.339514,0.10904 65.075641,53.415302 0 0 1 -0.340029,0.108 65.075641,53.415302 0 0 1 -0.341066,0.10646 65.075641,53.415302 0 0 1 -0.342099,0.10439 65.075641,53.415302 0 0 1 -0.342614,0.10335 65.075641,53.415302 0 0 1 -0.34313,0.10128 65.075641,53.415302 0 0 1 -0.343649,0.10026 65.075641,53.415302 0 0 1 -0.344683,0.0982 65.075641,53.415302 0 0 1 -0.345197,0.0966 65.075641,53.415302 0 0 1 -0.345715,0.0951 65.075641,53.415302 0 0 1 -0.34675,0.0935 65.075641,53.415302 0 0 1 -0.347265,0.092 65.075641,53.415302 0 0 1 -0.347782,0.0904 65.075641,53.415302 0 0 1 -0.3483,0.0889 65.075641,53.415302 0 0 1 -0.348816,0.0868 65.075641,53.415302 0 0 1 -0.349851,0.0863 65.075641,53.415302 0 0 1 -0.349848,0.0832 65.075641,53.415302 0 0 1 -0.350882,0.0827 65.075641,53.415302 0 0 1 -0.351401,0.0811 65.075641,53.415302 0 0 1 -0.351917,0.0791 65.075641,53.415302 0 0 1 -0.352433,0.0775 65.075641,53.415302 0 0 1 -0.352949,0.076 65.075641,53.415302 0 0 1 -0.353467,0.0739 65.075641,53.415302 0 0 1 -0.353468,0.0729 65.075641,53.415302 0 0 1 -0.354499,0.0708 65.075641,53.415302 0 0 1 -0.01085,0.002 h -30.482376 -5.16e-4 z m 35.668622,1.220081 a 65.075641,53.415302 0 0 1 0.345715,0.09508 65.075641,53.415302 0 0 0 -0.344681,-0.09508 65.075641,53.415302 0 0 0 -10e-4,0 z m 0.345715,0.09508 a 65.075641,53.415302 0 0 1 0.345715,0.09612 65.075641,53.415302 0 0 0 -0.345197,-0.09612 65.075641,53.415302 0 0 0 -5.18e-4,0 z m 0.845428,0.239262 a 65.075641,53.415302 0 0 1 0.376719,0.11007 65.075641,53.415302 0 0 0 -0.187584,-0.05529 65.075641,53.415302 0 0 0 -0.189135,-0.05478 z m 0.874882,0.258898 a 65.075641,53.415302 0 0 1 0.342098,0.104389 65.075641,53.415302 0 0 0 -0.342098,-0.104389 z m 1.702221,0.537435 a 65.075641,53.415302 0 0 1 0.270785,0.08992 65.075641,53.415302 0 0 0 -0.270785,-0.08992 z m 1.683618,0.576194 a 65.075641,53.415302 0 0 1 0.239778,0.0863 65.075641,53.415302 0 0 0 -0.239778,-0.0863 z m 0.66766,0.241329 a 65.075641,53.415302 0 0 1 0.24598,0.09095 65.075641,53.415302 0 0 0 -0.24598,-0.09095 z m 0.995288,0.37362 a 65.075641,53.415302 0 0 1 0.255281,0.0987 65.075641,53.415302 0 0 0 -0.255281,-0.0987 z m 0.330213,0.127641 a 65.075641,53.415302 0 0 1 0.258382,0.101285 65.075641,53.415302 0 0 0 -0.258382,-0.101285 z m 0.396875,0.156062 a 65.075641,53.415302 0 0 1 0.260448,0.10387 65.075641,53.415302 0 0 1 0.188619,0.07596 65.075641,53.415302 0 0 0 -0.449067,-0.179834 z m 0.72502,0.291972 a 65.075641,53.415302 0 0 1 0.189134,0.07751 65.075641,53.415302 0 0 1 0.270785,0.112139 65.075641,53.415302 0 0 0 -0.459919,-0.189654 z m 0.973584,0.40566 a 65.075641,53.415302 0 0 1 0.189651,0.08165 65.075641,53.415302 0 0 1 0.248047,0.106968 65.075641,53.415302 0 0 0 -0.437698,-0.188618 z m 0.63872,0.276468 a 65.075641,53.415302 0 0 1 0.195337,0.08578 65.075641,53.415302 0 0 1 0.32091,0.142629 65.075641,53.415302 0 0 1 0.288356,0.129707 65.075641,53.415302 0 0 0 -0.804603,-0.358119 z m 2.420525,1.114145 a 65.075641,53.415302 0 0 1 0.305924,0.149344 65.075641,53.415302 0 0 0 -0.305924,-0.149344 z m 1.55856,0.778248 a 65.075641,53.415302 0 0 1 0.151413,0.07855 65.075641,53.415302 0 0 0 -0.150895,-0.07855 65.075641,53.415302 0 0 0 -5.18e-4,0 z m 0.151413,0.07855 a 65.075641,53.415302 0 0 1 0.156578,0.08165 65.075641,53.415302 0 0 1 0.307475,0.161229 65.075641,53.415302 0 0 1 0.305924,0.162782 65.075641,53.415302 0 0 1 0.305409,0.163814 65.075641,53.415302 0 0 0 -1.075386,-0.569475 z m 1.07642,0.569991 a 65.075641,53.415302 0 0 1 0.302824,0.165365 65.075641,53.415302 0 0 1 0.302823,0.166915 65.075641,53.415302 0 0 0 -0.605647,-0.33228 z m 0.605647,0.33228 a 65.075641,53.415302 0 0 1 0.301792,0.168465 65.075641,53.415302 0 0 1 0.300238,0.169498 65.075641,53.415302 0 0 0 -0.60203,-0.337963 z m 0.602546,0.337963 a 65.075641,53.415302 0 0 1 0.262001,0.149863 65.075641,53.415302 0 0 0 -0.261482,-0.149863 65.075641,53.415302 0 0 0 -5.19e-4,0 z m 0.299207,0.17105 a 65.075641,53.415302 0 0 1 0.298175,0.172599 65.075641,53.415302 0 0 0 -0.298175,-0.172599 z m 1.480013,0.876433 a 65.075641,53.415302 0 0 1 0.290423,0.1788 65.075641,53.415302 0 0 1 0.291454,0.180866 65.075641,53.415302 0 0 0 -0.581877,-0.359666 z m 0.582912,0.360182 a 65.075641,53.415302 0 0 1 0.288353,0.181385 65.075641,53.415302 0 0 1 0.288356,0.183452 65.075641,53.415302 0 0 1 0.287319,0.184486 65.075641,53.415302 0 0 0 5.19e-4,0 65.075641,53.415302 0 0 0 -0.864547,-0.549323 z m 0.908989,0.577744 a 65.075641,53.415302 0 0 1 0.241326,0.157613 65.075641,53.415302 0 0 1 0.28474,0.187068 65.075641,53.415302 0 0 0 -0.526066,-0.344681 z m 0.527097,0.3452 a 65.075641,53.415302 0 0 1 0.282155,0.1881 65.075641,53.415302 0 0 1 0.282154,0.189653 65.075641,53.415302 0 0 1 0.001,5.16e-4 65.075641,53.415302 0 0 0 -0.565341,-0.378269 z m 0.565857,0.378269 a 65.075641,53.415302 0 0 1 0.279053,0.190688 65.075641,53.415302 0 0 0 5.19e-4,0 65.075641,53.415302 0 0 0 -0.279572,-0.190688 z m 0.316778,0.216009 a 65.075641,53.415302 0 0 1 0.241845,0.167431 65.075641,53.415302 0 0 1 0.134876,0.09354 h -41.114802 v 28.458729 h 62.3538153 a 65.075641,53.415302 0 0 1 0.014469,0.04806 65.075641,53.415302 0 0 1 0.082166,0.291971 65.075641,53.415302 0 0 1 0.080615,0.291973 65.075641,53.415302 0 0 1 0.078031,0.292489 65.075641,53.415302 0 0 1 0.076998,0.292486 65.075641,53.415302 0 0 1 0.074414,0.293008 65.075641,53.415302 0 0 1 0.072864,0.29352 65.075641,53.415302 0 0 1 0.07028,0.29404 65.075641,53.415302 0 0 1 0.06873,0.294039 65.075641,53.415302 0 0 1 0.066663,0.294555 65.075641,53.415302 0 0 1 0.064079,0.294556 65.075641,53.415302 0 0 1 0.062528,0.295071 65.075641,53.415302 0 0 1 0.060462,0.29559 65.075641,53.415302 0 0 1 0.058394,0.295074 65.075641,53.415302 0 0 1 0.056844,0.296106 65.075641,53.415302 0 0 1 0.05426,0.296105 65.075641,53.415302 0 0 1 0.052193,0.296106 65.075641,53.415302 0 0 1 0.050643,0.296622 65.075641,53.415302 0 0 1 0.048059,0.297144 65.075641,53.415302 0 0 1 0.046509,0.29714 65.075641,53.415302 0 0 1 0.043925,0.29714 65.075641,53.415302 0 0 1 0.042375,0.29714 65.075641,53.415302 0 0 1 0.040308,0.29765 65.075641,53.415302 0 0 1 0.03824,0.29817 65.075641,53.415302 0 0 1 0.036174,0.29766 65.075641,53.415302 0 0 1 0.034106,0.29817 65.075641,53.415302 0 0 1 0.032039,0.29818 65.075641,53.415302 0 0 1 0.029972,0.29869 65.075641,53.415302 0 0 1 0.027905,0.29869 65.075641,53.415302 0 0 1 0.025321,0.29869 65.075641,53.415302 0 0 1 0.024805,0.29868 65.075641,53.415302 0 0 1 0.021704,0.2987 65.075641,53.415302 0 0 1 0.01912,0.29869 65.075641,53.415302 0 0 1 0.018087,0.2992 65.075641,53.415302 0 0 1 0.015503,0.29921 65.075641,53.415302 0 0 1 0.01447,0.2992 65.075641,53.415302 0 0 1 0.011369,0.29921 65.075641,53.415302 0 0 1 0.00982,0.29973 65.075641,53.415302 0 0 1 0.00775,0.2992 65.075641,53.415302 0 0 1 0.00517,0.29921 65.075641,53.415302 0 0 1 0.00413,0.29972 65.075641,53.415302 0 0 1 0.00207,0.29766 65.075641,53.415302 0 0 0 -23.3592973,-40.933938 z"
       style="font-style:normal;font-weight:normal;font-size:38.1px;line-height:1.25;font-family:sans-serif;white-space:pre;fill:#ff6600;fill-opacity:1;stroke:none;stroke-width:4.06175"
       id="path1388" />
    <text
       transform="translate(-24.946429,22.678571)"
       style="font-style:normal;font-weight:normal;font-size:38.1px;line-height:1.25;font-family:sans-serif;white-space:pre;shape-inside:url(#rect1421);fill:#ff6600;fill-opacity:1;stroke:none;"
       id="text1419"
       xml:space="preserve"><tspan
         x="22.677734"
         y="75.582049"><tspan
           style="font-size:38.1px;fill:#ff6600">Egzamin
</tspan></tspan><tspan
         x="22.677734"
         y="123.20705"><tspan
           style="font-size:38.1px;fill:#ff6600">Zawodowy</tspan></tspan></text>
  </g>
</svg>
